{
    "name": "GliderControls",
    "maps": [
        {
            "name": "glider",
            "id": "3c05bcb1-865b-444f-9eed-912eda96fbfc",
            "actions": [
                {
                    "name": "move",
                    "type": "Value",
                    "id": "8d18df68-23eb-44e4-8527-d949e69b8fb4",
                    "expectedControlType": "Vector2",
                    "processors": "",
                    "interactions": ""
                },
                {
                    "name": "reset",
                    "type": "Button",
                    "id": "d5c62c0b-40cc-4bf6-88b2-6a2a18383b32",
                    "expectedControlType": "",
                    "processors": "",
                    "interactions": "Press"
                },
                {
                    "name": "dive",
                    "type": "Value",
                    "id": "78dacc51-d84a-4086-9d6e-396ae45963e8",
                    "expectedControlType": "Axis",
                    "processors": "",
                    "interactions": ""
                }
            ],
            "bindings": [
                {
                    "name": "",
                    "id": "80d9902f-b64b-4705-a930-c97e16aafda1",
                    "path": "<Gamepad>/leftStick",
                    "interactions": "",
                    "processors": "",
                    "groups": "",
                    "action": "move",
                    "isComposite": false,
                    "isPartOfComposite": false
                },
                {
                    "name": "",
                    "id": "3b419b4b-169d-481e-af5c-e61809896deb",
                    "path": "<Mouse>/delta",
                    "interactions": "",
                    "processors": "NormalizeVector2,ScaleVector2(x=0.5,y=-0.5)",
                    "groups": "",
                    "action": "move",
                    "isComposite": false,
                    "isPartOfComposite": false
                },
                {
                    "name": "WASD",
                    "id": "37e15c3b-261b-463a-a000-7156509f1ddd",
                    "path": "2DVector",
                    "interactions": "",
                    "processors": "",
                    "groups": "",
                    "action": "move",
                    "isComposite": true,
                    "isPartOfComposite": false
                },
                {
                    "name": "Up",
                    "id": "7ab6d4aa-fe83-4620-ac57-6661812d6c10",
                    "path": "<Keyboard>/w",
                    "interactions": "",
                    "processors": "",
                    "groups": "",
                    "action": "move",
                    "isComposite": false,
                    "isPartOfComposite": true
                },
                {
                    "name": "Down",
                    "id": "bd0b621c-6f2f-4cfe-a436-53a1a4a6a41b",
                    "path": "<Keyboard>/s",
                    "interactions": "",
                    "processors": "",
                    "groups": "",
                    "action": "move",
                    "isComposite": false,
                    "isPartOfComposite": true
                },
                {
                    "name": "Left",
                    "id": "a0f1df57-b947-4504-a80d-6a69a8acaeb2",
                    "path": "<Keyboard>/a",
                    "interactions": "",
                    "processors": "",
                    "groups": "",
                    "action": "move",
                    "isComposite": false,
                    "isPartOfComposite": true
                },
                {
                    "name": "Right",
                    "id": "a09076ec-5a03-4667-a6d5-f0e0df41558a",
                    "path": "<Keyboard>/d",
                    "interactions": "",
                    "processors": "",
                    "groups": "",
                    "action": "move",
                    "isComposite": false,
                    "isPartOfComposite": true
                },
                {
                    "name": "Arrows",
                    "id": "39870ee9-84d6-4ae1-8a76-f2b51258e46b",
                    "path": "2DVector",
                    "interactions": "",
                    "processors": "",
                    "groups": "",
                    "action": "move",
                    "isComposite": true,
                    "isPartOfComposite": false
                },
                {
                    "name": "up",
                    "id": "08d9b897-8047-4fb7-9f4c-efaa0a068c20",
                    "path": "<Keyboard>/upArrow",
                    "interactions": "",
                    "processors": "",
                    "groups": "",
                    "action": "move",
                    "isComposite": false,
                    "isPartOfComposite": true
                },
                {
                    "name": "down",
                    "id": "f27dde90-1c99-4102-ba3a-fa18491c68f9",
                    "path": "<Keyboard>/downArrow",
                    "interactions": "",
                    "processors": "",
                    "groups": "",
                    "action": "move",
                    "isComposite": false,
                    "isPartOfComposite": true
                },
                {
                    "name": "left",
                    "id": "7fdcb1f9-bf2d-428b-895d-f82b0d5e3a5e",
                    "path": "<Keyboard>/leftArrow",
                    "interactions": "",
                    "processors": "",
                    "groups": "",
                    "action": "move",
                    "isComposite": false,
                    "isPartOfComposite": true
                },
                {
                    "name": "right",
                    "id": "edfee326-b642-4570-846b-05cb9eaf9c02",
                    "path": "<Keyboard>/rightArrow",
                    "interactions": "",
                    "processors": "",
                    "groups": "",
                    "action": "move",
                    "isComposite": false,
                    "isPartOfComposite": true
                },
                {
                    "name": "",
                    "id": "101fcca7-206f-4d08-810a-cfce92596b78",
                    "path": "<Keyboard>/r",
                    "interactions": "",
                    "processors": "",
                    "groups": "",
                    "action": "reset",
                    "isComposite": false,
                    "isPartOfComposite": false
                },
                {
                    "name": "",
                    "id": "90fa588c-8d8b-4126-851c-4d7b655dfcaa",
                    "path": "<Gamepad>/start",
                    "interactions": "",
                    "processors": "",
                    "groups": "",
                    "action": "reset",
                    "isComposite": false,
                    "isPartOfComposite": false
                },
                {
                    "name": "",
                    "id": "adf81386-901b-456d-b200-225ebbc00583",
                    "path": "<Gamepad>/rightTrigger",
                    "interactions": "",
                    "processors": "",
                    "groups": "",
                    "action": "dive",
                    "isComposite": false,
                    "isPartOfComposite": false
                },
                {
                    "name": "",
                    "id": "f19bafba-a69a-42a0-8fb5-e77f3bad94f0",
                    "path": "<Gamepad>/leftTrigger",
                    "interactions": "",
                    "processors": "Invert",
                    "groups": "",
                    "action": "dive",
                    "isComposite": false,
                    "isPartOfComposite": false
                },
                {
                    "name": "keyboard",
                    "id": "b601b97d-e868-4b8e-abb9-748e147aa39b",
                    "path": "1DAxis",
                    "interactions": "Press(behavior=2)",
                    "processors": "",
                    "groups": "",
                    "action": "dive",
                    "isComposite": true,
                    "isPartOfComposite": false
                },
                {
                    "name": "negative",
                    "id": "ca2d72fc-ebb5-47a0-baa5-897ef774b14f",
                    "path": "<Keyboard>/space",
                    "interactions": "",
                    "processors": "",
                    "groups": "",
                    "action": "dive",
                    "isComposite": false,
                    "isPartOfComposite": true
                },
                {
                    "name": "positive",
                    "id": "a9de3f94-f2d4-40ea-b208-1fa97253e416",
                    "path": "<Keyboard>/leftShift",
                    "interactions": "",
                    "processors": "",
                    "groups": "",
                    "action": "dive",
                    "isComposite": false,
                    "isPartOfComposite": true
                }
            ]
        }
    ],
    "controlSchemes": []
}